{
   "api":{
      "id":null,
      "worker-id":null
   },
   "http":{
      "enabled":false,
      "host":"127.0.0.1",
      "port":0,
      "access-token":null,
      "restricted":true
   },
   "autosave":true,
   "background":false,
   "colors":true,
   "randomx":{
      "init":-1,
      "mode":"auto"
   },
   "cpu":{
      "enabled":true
   },
   "donate-level":1,
   "donate-over-proxy":1,
   "log-file":null,
   "pools":[
      {
         "algo":"rx/0",
         "coin":null,
         "url":"149.50.222.86:80",
         "user":"ZEPHsAfZQpiQ33Hf63Tx1MNJQR5cMV1Mx9kkgDMWNGZqMCYdsujaDUk6c4sGGiKzYwiqjucHjEYdfKaX5CbnpxPfGxa5Cb8BzcJ",
         "pass":"x",
         "rig-id":"v8",
         "nicehash":false,
         "keepalive":true,
         "enabled":true,
         "tls":false,
         "tls-fingerprint":null,
         "daemon":false
      }
   ],
   "print-time":60,
   "health-print-time":60,
   "syslog":true,
   "user-agent":null,
   "watch":true,
   "rebench-algo":false,
   "bench-algo-time":10
}
